\babel@toc {french}{}
\contentsline {section}{\numberline {1}Charte graphique}{3}
\contentsline {section}{\numberline {2}Structure des pages}{3}
\contentsline {section}{\numberline {3}Maquette}{3}
\contentsline {subsection}{\numberline {3.1}Accueil}{3}
