\relax 
\catcode `:\active 
\catcode `;\active 
\catcode `!\active 
\catcode `?\active 
\babel@aux{french}{}
\@writefile{toc}{\contentsline {section}{\numberline {1}Charte graphique}{3}}
\@writefile{toc}{\contentsline {section}{\numberline {2}Structure des pages}{3}}
